+-----------------------------------------------------------------------------------------------------------------------------------------------------------------------------------------------------------------------------------------------------------------------------------------------------------------------------------------------------------+
; Legal Partition Candidates                                                                                                                                                                                                                                                                                                                                ;
+------------------------------------------------------------------------------------------------------------------------------------------------------+-------+----------------+--------------+----------------+--------+-----------------+---------------+-----------------+-------+----------------+--------------+------------------+-------------------+
; Hierarchy                                                                                                                                            ; Input ; Constant Input ; Unused Input ; Floating Input ; Output ; Constant Output ; Unused Output ; Floating Output ; Bidir ; Constant Bidir ; Unused Bidir ; Input only Bidir ; Output only Bidir ;
+------------------------------------------------------------------------------------------------------------------------------------------------------+-------+----------------+--------------+----------------+--------+-----------------+---------------+-----------------+-------+----------------+--------------+------------------+-------------------+
; soc_system_inst|rst_controller_001|alt_rst_req_sync_uq1                                                                                              ; 2     ; 1              ; 0            ; 1              ; 1      ; 1               ; 1             ; 1               ; 0     ; 0              ; 0            ; 0                ; 0                 ;
; soc_system_inst|rst_controller_001|alt_rst_sync_uq1                                                                                                  ; 2     ; 0              ; 0            ; 0              ; 1      ; 0               ; 0             ; 0               ; 0     ; 0              ; 0            ; 0                ; 0                 ;
; soc_system_inst|rst_controller_001                                                                                                                   ; 33    ; 32             ; 0            ; 32             ; 2      ; 32              ; 32            ; 32              ; 0     ; 0              ; 0            ; 0                ; 0                 ;
; soc_system_inst|rst_controller|alt_rst_req_sync_uq1                                                                                                  ; 2     ; 1              ; 0            ; 1              ; 1      ; 1               ; 1             ; 1               ; 0     ; 0              ; 0            ; 0                ; 0                 ;
; soc_system_inst|rst_controller|alt_rst_sync_uq1                                                                                                      ; 2     ; 0              ; 0            ; 0              ; 1      ; 0               ; 0             ; 0               ; 0     ; 0              ; 0            ; 0                ; 0                 ;
; soc_system_inst|rst_controller                                                                                                                       ; 33    ; 32             ; 0            ; 32             ; 2      ; 32              ; 32            ; 32              ; 0     ; 0              ; 0            ; 0                ; 0                 ;
; soc_system_inst|irq_mapper_001                                                                                                                       ; 2     ; 32             ; 2            ; 32             ; 32     ; 32              ; 32            ; 32              ; 0     ; 0              ; 0            ; 0                ; 0                 ;
; soc_system_inst|irq_mapper                                                                                                                           ; 3     ; 31             ; 2            ; 31             ; 32     ; 31              ; 31            ; 31              ; 0     ; 0              ; 0            ; 0                ; 0                 ;
; soc_system_inst|mm_interconnect_0|avalon_st_adapter_003|error_adapter_0                                                                              ; 38    ; 1              ; 2            ; 1              ; 37     ; 1               ; 1             ; 1               ; 0     ; 0              ; 0            ; 0                ; 0                 ;
; soc_system_inst|mm_interconnect_0|avalon_st_adapter_003                                                                                              ; 38    ; 0              ; 0            ; 0              ; 37     ; 0               ; 0             ; 0               ; 0     ; 0              ; 0            ; 0                ; 0                 ;
; soc_system_inst|mm_interconnect_0|avalon_st_adapter_002|error_adapter_0                                                                              ; 38    ; 1              ; 2            ; 1              ; 37     ; 1               ; 1             ; 1               ; 0     ; 0              ; 0            ; 0                ; 0                 ;
; soc_system_inst|mm_interconnect_0|avalon_st_adapter_002                                                                                              ; 38    ; 0              ; 0            ; 0              ; 37     ; 0               ; 0             ; 0               ; 0     ; 0              ; 0            ; 0                ; 0                 ;
; soc_system_inst|mm_interconnect_0|avalon_st_adapter_001|error_adapter_0                                                                              ; 38    ; 1              ; 2            ; 1              ; 37     ; 1               ; 1             ; 1               ; 0     ; 0              ; 0            ; 0                ; 0                 ;
; soc_system_inst|mm_interconnect_0|avalon_st_adapter_001                                                                                              ; 38    ; 0              ; 0            ; 0              ; 37     ; 0               ; 0             ; 0               ; 0     ; 0              ; 0            ; 0                ; 0                 ;
; soc_system_inst|mm_interconnect_0|avalon_st_adapter|error_adapter_0                                                                                  ; 38    ; 1              ; 2            ; 1              ; 37     ; 1               ; 1             ; 1               ; 0     ; 0              ; 0            ; 0                ; 0                 ;
; soc_system_inst|mm_interconnect_0|avalon_st_adapter                                                                                                  ; 38    ; 0              ; 0            ; 0              ; 37     ; 0               ; 0             ; 0               ; 0     ; 0              ; 0            ; 0                ; 0                 ;
; soc_system_inst|mm_interconnect_0|rsp_mux_001|arb|adder                                                                                              ; 16    ; 8              ; 0            ; 8              ; 8      ; 8               ; 8             ; 8               ; 0     ; 0              ; 0            ; 0                ; 0                 ;
; soc_system_inst|mm_interconnect_0|rsp_mux_001|arb                                                                                                    ; 8     ; 0              ; 4            ; 0              ; 4      ; 0               ; 0             ; 0               ; 0     ; 0              ; 0            ; 0                ; 0                 ;
; soc_system_inst|mm_interconnect_0|rsp_mux_001                                                                                                        ; 487   ; 0              ; 0            ; 0              ; 125    ; 0               ; 0             ; 0               ; 0     ; 0              ; 0            ; 0                ; 0                 ;
; soc_system_inst|mm_interconnect_0|rsp_mux|arb|adder                                                                                                  ; 16    ; 8              ; 0            ; 8              ; 8      ; 8               ; 8             ; 8               ; 0     ; 0              ; 0            ; 0                ; 0                 ;
; soc_system_inst|mm_interconnect_0|rsp_mux|arb                                                                                                        ; 8     ; 0              ; 4            ; 0              ; 4      ; 0               ; 0             ; 0               ; 0     ; 0              ; 0            ; 0                ; 0                 ;
; soc_system_inst|mm_interconnect_0|rsp_mux                                                                                                            ; 487   ; 0              ; 0            ; 0              ; 125    ; 0               ; 0             ; 0               ; 0     ; 0              ; 0            ; 0                ; 0                 ;
; soc_system_inst|mm_interconnect_0|rsp_demux_003                                                                                                      ; 125   ; 4              ; 2            ; 4              ; 243    ; 4               ; 4             ; 4               ; 0     ; 0              ; 0            ; 0                ; 0                 ;
; soc_system_inst|mm_interconnect_0|rsp_demux_002                                                                                                      ; 125   ; 4              ; 2            ; 4              ; 243    ; 4               ; 4             ; 4               ; 0     ; 0              ; 0            ; 0                ; 0                 ;
; soc_system_inst|mm_interconnect_0|rsp_demux_001                                                                                                      ; 125   ; 4              ; 2            ; 4              ; 243    ; 4               ; 4             ; 4               ; 0     ; 0              ; 0            ; 0                ; 0                 ;
; soc_system_inst|mm_interconnect_0|rsp_demux                                                                                                          ; 125   ; 4              ; 2            ; 4              ; 243    ; 4               ; 4             ; 4               ; 0     ; 0              ; 0            ; 0                ; 0                 ;
; soc_system_inst|mm_interconnect_0|cmd_mux_003|arb|adder                                                                                              ; 8     ; 2              ; 0            ; 2              ; 4      ; 2               ; 2             ; 2               ; 0     ; 0              ; 0            ; 0                ; 0                 ;
; soc_system_inst|mm_interconnect_0|cmd_mux_003|arb                                                                                                    ; 6     ; 0              ; 1            ; 0              ; 2      ; 0               ; 0             ; 0               ; 0     ; 0              ; 0            ; 0                ; 0                 ;
; soc_system_inst|mm_interconnect_0|cmd_mux_003                                                                                                        ; 245   ; 0              ; 0            ; 0              ; 123    ; 0               ; 0             ; 0               ; 0     ; 0              ; 0            ; 0                ; 0                 ;
; soc_system_inst|mm_interconnect_0|cmd_mux_002|arb|adder                                                                                              ; 8     ; 2              ; 0            ; 2              ; 4      ; 2               ; 2             ; 2               ; 0     ; 0              ; 0            ; 0                ; 0                 ;
; soc_system_inst|mm_interconnect_0|cmd_mux_002|arb                                                                                                    ; 6     ; 0              ; 1            ; 0              ; 2      ; 0               ; 0             ; 0               ; 0     ; 0              ; 0            ; 0                ; 0                 ;
; soc_system_inst|mm_interconnect_0|cmd_mux_002                                                                                                        ; 245   ; 0              ; 0            ; 0              ; 123    ; 0               ; 0             ; 0               ; 0     ; 0              ; 0            ; 0                ; 0                 ;
; soc_system_inst|mm_interconnect_0|cmd_mux_001|arb|adder                                                                                              ; 8     ; 2              ; 0            ; 2              ; 4      ; 2               ; 2             ; 2               ; 0     ; 0              ; 0            ; 0                ; 0                 ;
; soc_system_inst|mm_interconnect_0|cmd_mux_001|arb                                                                                                    ; 6     ; 0              ; 1            ; 0              ; 2      ; 0               ; 0             ; 0               ; 0     ; 0              ; 0            ; 0                ; 0                 ;
; soc_system_inst|mm_interconnect_0|cmd_mux_001                                                                                                        ; 245   ; 0              ; 0            ; 0              ; 123    ; 0               ; 0             ; 0               ; 0     ; 0              ; 0            ; 0                ; 0                 ;
; soc_system_inst|mm_interconnect_0|cmd_mux|arb|adder                                                                                                  ; 8     ; 2              ; 0            ; 2              ; 4      ; 2               ; 2             ; 2               ; 0     ; 0              ; 0            ; 0                ; 0                 ;
; soc_system_inst|mm_interconnect_0|cmd_mux|arb                                                                                                        ; 6     ; 0              ; 1            ; 0              ; 2      ; 0               ; 0             ; 0               ; 0     ; 0              ; 0            ; 0                ; 0                 ;
; soc_system_inst|mm_interconnect_0|cmd_mux                                                                                                            ; 245   ; 0              ; 0            ; 0              ; 123    ; 0               ; 0             ; 0               ; 0     ; 0              ; 0            ; 0                ; 0                 ;
; soc_system_inst|mm_interconnect_0|cmd_demux_001                                                                                                      ; 130   ; 16             ; 2            ; 16             ; 485    ; 16              ; 16            ; 16              ; 0     ; 0              ; 0            ; 0                ; 0                 ;
; soc_system_inst|mm_interconnect_0|cmd_demux                                                                                                          ; 130   ; 16             ; 2            ; 16             ; 485    ; 16              ; 16            ; 16              ; 0     ; 0              ; 0            ; 0                ; 0                 ;
; soc_system_inst|mm_interconnect_0|pio_0_s1_burst_adapter|altera_merlin_burst_adapter_13_1.burst_adapter|the_min|dc_sub|subtract                      ; 17    ; 1              ; 0            ; 1              ; 8      ; 1               ; 1             ; 1               ; 0     ; 0              ; 0            ; 0                ; 0                 ;
; soc_system_inst|mm_interconnect_0|pio_0_s1_burst_adapter|altera_merlin_burst_adapter_13_1.burst_adapter|the_min|dc_sub                               ; 16    ; 2              ; 0            ; 2              ; 8      ; 2               ; 2             ; 2               ; 0     ; 0              ; 0            ; 0                ; 0                 ;
; soc_system_inst|mm_interconnect_0|pio_0_s1_burst_adapter|altera_merlin_burst_adapter_13_1.burst_adapter|the_min|db_sub|subtract                      ; 17    ; 1              ; 0            ; 1              ; 8      ; 1               ; 1             ; 1               ; 0     ; 0              ; 0            ; 0                ; 0                 ;
; soc_system_inst|mm_interconnect_0|pio_0_s1_burst_adapter|altera_merlin_burst_adapter_13_1.burst_adapter|the_min|db_sub                               ; 16    ; 2              ; 0            ; 2              ; 8      ; 2               ; 2             ; 2               ; 0     ; 0              ; 0            ; 0                ; 0                 ;
; soc_system_inst|mm_interconnect_0|pio_0_s1_burst_adapter|altera_merlin_burst_adapter_13_1.burst_adapter|the_min|da_sub|subtract                      ; 17    ; 1              ; 0            ; 1              ; 8      ; 1               ; 1             ; 1               ; 0     ; 0              ; 0            ; 0                ; 0                 ;
; soc_system_inst|mm_interconnect_0|pio_0_s1_burst_adapter|altera_merlin_burst_adapter_13_1.burst_adapter|the_min|da_sub                               ; 16    ; 2              ; 0            ; 2              ; 8      ; 2               ; 2             ; 2               ; 0     ; 0              ; 0            ; 0                ; 0                 ;
; soc_system_inst|mm_interconnect_0|pio_0_s1_burst_adapter|altera_merlin_burst_adapter_13_1.burst_adapter|the_min|bc_sub|subtract                      ; 17    ; 1              ; 0            ; 1              ; 8      ; 1               ; 1             ; 1               ; 0     ; 0              ; 0            ; 0                ; 0                 ;
; soc_system_inst|mm_interconnect_0|pio_0_s1_burst_adapter|altera_merlin_burst_adapter_13_1.burst_adapter|the_min|bc_sub                               ; 16    ; 2              ; 0            ; 2              ; 8      ; 2               ; 2             ; 2               ; 0     ; 0              ; 0            ; 0                ; 0                 ;
; soc_system_inst|mm_interconnect_0|pio_0_s1_burst_adapter|altera_merlin_burst_adapter_13_1.burst_adapter|the_min|ac_sub|subtract                      ; 17    ; 1              ; 0            ; 1              ; 8      ; 1               ; 1             ; 1               ; 0     ; 0              ; 0            ; 0                ; 0                 ;
; soc_system_inst|mm_interconnect_0|pio_0_s1_burst_adapter|altera_merlin_burst_adapter_13_1.burst_adapter|the_min|ac_sub                               ; 16    ; 2              ; 0            ; 2              ; 8      ; 2               ; 2             ; 2               ; 0     ; 0              ; 0            ; 0                ; 0                 ;
; soc_system_inst|mm_interconnect_0|pio_0_s1_burst_adapter|altera_merlin_burst_adapter_13_1.burst_adapter|the_min|ab_sub|subtract                      ; 17    ; 1              ; 0            ; 1              ; 8      ; 1               ; 1             ; 1               ; 0     ; 0              ; 0            ; 0                ; 0                 ;
; soc_system_inst|mm_interconnect_0|pio_0_s1_burst_adapter|altera_merlin_burst_adapter_13_1.burst_adapter|the_min|ab_sub                               ; 16    ; 2              ; 0            ; 2              ; 8      ; 2               ; 2             ; 2               ; 0     ; 0              ; 0            ; 0                ; 0                 ;
; soc_system_inst|mm_interconnect_0|pio_0_s1_burst_adapter|altera_merlin_burst_adapter_13_1.burst_adapter|the_min                                      ; 31    ; 0              ; 2            ; 0              ; 7      ; 0               ; 0             ; 0               ; 0     ; 0              ; 0            ; 0                ; 0                 ;
; soc_system_inst|mm_interconnect_0|pio_0_s1_burst_adapter|altera_merlin_burst_adapter_13_1.burst_adapter|the_burstwrap_increment                      ; 7     ; 0              ; 0            ; 0              ; 7      ; 0               ; 0             ; 0               ; 0     ; 0              ; 0            ; 0                ; 0                 ;
; soc_system_inst|mm_interconnect_0|pio_0_s1_burst_adapter|altera_merlin_burst_adapter_13_1.burst_adapter|align_address_to_size                        ; 29    ; 5              ; 0            ; 5              ; 23     ; 5               ; 5             ; 5               ; 0     ; 0              ; 0            ; 0                ; 0                 ;
; soc_system_inst|mm_interconnect_0|pio_0_s1_burst_adapter|altera_merlin_burst_adapter_13_1.burst_adapter                                              ; 124   ; 0              ; 0            ; 0              ; 122    ; 0               ; 0             ; 0               ; 0     ; 0              ; 0            ; 0                ; 0                 ;
; soc_system_inst|mm_interconnect_0|pio_0_s1_burst_adapter                                                                                             ; 124   ; 0              ; 0            ; 0              ; 122    ; 0               ; 0             ; 0               ; 0     ; 0              ; 0            ; 0                ; 0                 ;
; soc_system_inst|mm_interconnect_0|sysid_qsys_0_control_slave_burst_adapter|altera_merlin_burst_adapter_13_1.burst_adapter|the_min|dc_sub|subtract    ; 17    ; 1              ; 0            ; 1              ; 8      ; 1               ; 1             ; 1               ; 0     ; 0              ; 0            ; 0                ; 0                 ;
; soc_system_inst|mm_interconnect_0|sysid_qsys_0_control_slave_burst_adapter|altera_merlin_burst_adapter_13_1.burst_adapter|the_min|dc_sub             ; 16    ; 2              ; 0            ; 2              ; 8      ; 2               ; 2             ; 2               ; 0     ; 0              ; 0            ; 0                ; 0                 ;
; soc_system_inst|mm_interconnect_0|sysid_qsys_0_control_slave_burst_adapter|altera_merlin_burst_adapter_13_1.burst_adapter|the_min|db_sub|subtract    ; 17    ; 1              ; 0            ; 1              ; 8      ; 1               ; 1             ; 1               ; 0     ; 0              ; 0            ; 0                ; 0                 ;
; soc_system_inst|mm_interconnect_0|sysid_qsys_0_control_slave_burst_adapter|altera_merlin_burst_adapter_13_1.burst_adapter|the_min|db_sub             ; 16    ; 2              ; 0            ; 2              ; 8      ; 2               ; 2             ; 2               ; 0     ; 0              ; 0            ; 0                ; 0                 ;
; soc_system_inst|mm_interconnect_0|sysid_qsys_0_control_slave_burst_adapter|altera_merlin_burst_adapter_13_1.burst_adapter|the_min|da_sub|subtract    ; 17    ; 1              ; 0            ; 1              ; 8      ; 1               ; 1             ; 1               ; 0     ; 0              ; 0            ; 0                ; 0                 ;
; soc_system_inst|mm_interconnect_0|sysid_qsys_0_control_slave_burst_adapter|altera_merlin_burst_adapter_13_1.burst_adapter|the_min|da_sub             ; 16    ; 2              ; 0            ; 2              ; 8      ; 2               ; 2             ; 2               ; 0     ; 0              ; 0            ; 0                ; 0                 ;
; soc_system_inst|mm_interconnect_0|sysid_qsys_0_control_slave_burst_adapter|altera_merlin_burst_adapter_13_1.burst_adapter|the_min|bc_sub|subtract    ; 17    ; 1              ; 0            ; 1              ; 8      ; 1               ; 1             ; 1               ; 0     ; 0              ; 0            ; 0                ; 0                 ;
; soc_system_inst|mm_interconnect_0|sysid_qsys_0_control_slave_burst_adapter|altera_merlin_burst_adapter_13_1.burst_adapter|the_min|bc_sub             ; 16    ; 2              ; 0            ; 2              ; 8      ; 2               ; 2             ; 2               ; 0     ; 0              ; 0            ; 0                ; 0                 ;
; soc_system_inst|mm_interconnect_0|sysid_qsys_0_control_slave_burst_adapter|altera_merlin_burst_adapter_13_1.burst_adapter|the_min|ac_sub|subtract    ; 17    ; 1              ; 0            ; 1              ; 8      ; 1               ; 1             ; 1               ; 0     ; 0              ; 0            ; 0                ; 0                 ;
; soc_system_inst|mm_interconnect_0|sysid_qsys_0_control_slave_burst_adapter|altera_merlin_burst_adapter_13_1.burst_adapter|the_min|ac_sub             ; 16    ; 2              ; 0            ; 2              ; 8      ; 2               ; 2             ; 2               ; 0     ; 0              ; 0            ; 0                ; 0                 ;
; soc_system_inst|mm_interconnect_0|sysid_qsys_0_control_slave_burst_adapter|altera_merlin_burst_adapter_13_1.burst_adapter|the_min|ab_sub|subtract    ; 17    ; 1              ; 0            ; 1              ; 8      ; 1               ; 1             ; 1               ; 0     ; 0              ; 0            ; 0                ; 0                 ;
; soc_system_inst|mm_interconnect_0|sysid_qsys_0_control_slave_burst_adapter|altera_merlin_burst_adapter_13_1.burst_adapter|the_min|ab_sub             ; 16    ; 2              ; 0            ; 2              ; 8      ; 2               ; 2             ; 2               ; 0     ; 0              ; 0            ; 0                ; 0                 ;
; soc_system_inst|mm_interconnect_0|sysid_qsys_0_control_slave_burst_adapter|altera_merlin_burst_adapter_13_1.burst_adapter|the_min                    ; 31    ; 0              ; 2            ; 0              ; 7      ; 0               ; 0             ; 0               ; 0     ; 0              ; 0            ; 0                ; 0                 ;
; soc_system_inst|mm_interconnect_0|sysid_qsys_0_control_slave_burst_adapter|altera_merlin_burst_adapter_13_1.burst_adapter|the_burstwrap_increment    ; 7     ; 0              ; 0            ; 0              ; 7      ; 0               ; 0             ; 0               ; 0     ; 0              ; 0            ; 0                ; 0                 ;
; soc_system_inst|mm_interconnect_0|sysid_qsys_0_control_slave_burst_adapter|altera_merlin_burst_adapter_13_1.burst_adapter|align_address_to_size      ; 29    ; 5              ; 0            ; 5              ; 23     ; 5               ; 5             ; 5               ; 0     ; 0              ; 0            ; 0                ; 0                 ;
; soc_system_inst|mm_interconnect_0|sysid_qsys_0_control_slave_burst_adapter|altera_merlin_burst_adapter_13_1.burst_adapter                            ; 124   ; 0              ; 0            ; 0              ; 122    ; 0               ; 0             ; 0               ; 0     ; 0              ; 0            ; 0                ; 0                 ;
; soc_system_inst|mm_interconnect_0|sysid_qsys_0_control_slave_burst_adapter                                                                           ; 124   ; 0              ; 0            ; 0              ; 122    ; 0               ; 0             ; 0               ; 0     ; 0              ; 0            ; 0                ; 0                 ;
; soc_system_inst|mm_interconnect_0|jtag_uart_0_avalon_jtag_slave_burst_adapter|altera_merlin_burst_adapter_13_1.burst_adapter|the_min|dc_sub|subtract ; 17    ; 1              ; 0            ; 1              ; 8      ; 1               ; 1             ; 1               ; 0     ; 0              ; 0            ; 0                ; 0                 ;
; soc_system_inst|mm_interconnect_0|jtag_uart_0_avalon_jtag_slave_burst_adapter|altera_merlin_burst_adapter_13_1.burst_adapter|the_min|dc_sub          ; 16    ; 2              ; 0            ; 2              ; 8      ; 2               ; 2             ; 2               ; 0     ; 0              ; 0            ; 0                ; 0                 ;
; soc_system_inst|mm_interconnect_0|jtag_uart_0_avalon_jtag_slave_burst_adapter|altera_merlin_burst_adapter_13_1.burst_adapter|the_min|db_sub|subtract ; 17    ; 1              ; 0            ; 1              ; 8      ; 1               ; 1             ; 1               ; 0     ; 0              ; 0            ; 0                ; 0                 ;
; soc_system_inst|mm_interconnect_0|jtag_uart_0_avalon_jtag_slave_burst_adapter|altera_merlin_burst_adapter_13_1.burst_adapter|the_min|db_sub          ; 16    ; 2              ; 0            ; 2              ; 8      ; 2               ; 2             ; 2               ; 0     ; 0              ; 0            ; 0                ; 0                 ;
; soc_system_inst|mm_interconnect_0|jtag_uart_0_avalon_jtag_slave_burst_adapter|altera_merlin_burst_adapter_13_1.burst_adapter|the_min|da_sub|subtract ; 17    ; 1              ; 0            ; 1              ; 8      ; 1               ; 1             ; 1               ; 0     ; 0              ; 0            ; 0                ; 0                 ;
; soc_system_inst|mm_interconnect_0|jtag_uart_0_avalon_jtag_slave_burst_adapter|altera_merlin_burst_adapter_13_1.burst_adapter|the_min|da_sub          ; 16    ; 2              ; 0            ; 2              ; 8      ; 2               ; 2             ; 2               ; 0     ; 0              ; 0            ; 0                ; 0                 ;
; soc_system_inst|mm_interconnect_0|jtag_uart_0_avalon_jtag_slave_burst_adapter|altera_merlin_burst_adapter_13_1.burst_adapter|the_min|bc_sub|subtract ; 17    ; 1              ; 0            ; 1              ; 8      ; 1               ; 1             ; 1               ; 0     ; 0              ; 0            ; 0                ; 0                 ;
; soc_system_inst|mm_interconnect_0|jtag_uart_0_avalon_jtag_slave_burst_adapter|altera_merlin_burst_adapter_13_1.burst_adapter|the_min|bc_sub          ; 16    ; 2              ; 0            ; 2              ; 8      ; 2               ; 2             ; 2               ; 0     ; 0              ; 0            ; 0                ; 0                 ;
; soc_system_inst|mm_interconnect_0|jtag_uart_0_avalon_jtag_slave_burst_adapter|altera_merlin_burst_adapter_13_1.burst_adapter|the_min|ac_sub|subtract ; 17    ; 1              ; 0            ; 1              ; 8      ; 1               ; 1             ; 1               ; 0     ; 0              ; 0            ; 0                ; 0                 ;
; soc_system_inst|mm_interconnect_0|jtag_uart_0_avalon_jtag_slave_burst_adapter|altera_merlin_burst_adapter_13_1.burst_adapter|the_min|ac_sub          ; 16    ; 2              ; 0            ; 2              ; 8      ; 2               ; 2             ; 2               ; 0     ; 0              ; 0            ; 0                ; 0                 ;
; soc_system_inst|mm_interconnect_0|jtag_uart_0_avalon_jtag_slave_burst_adapter|altera_merlin_burst_adapter_13_1.burst_adapter|the_min|ab_sub|subtract ; 17    ; 1              ; 0            ; 1              ; 8      ; 1               ; 1             ; 1               ; 0     ; 0              ; 0            ; 0                ; 0                 ;
; soc_system_inst|mm_interconnect_0|jtag_uart_0_avalon_jtag_slave_burst_adapter|altera_merlin_burst_adapter_13_1.burst_adapter|the_min|ab_sub          ; 16    ; 2              ; 0            ; 2              ; 8      ; 2               ; 2             ; 2               ; 0     ; 0              ; 0            ; 0                ; 0                 ;
; soc_system_inst|mm_interconnect_0|jtag_uart_0_avalon_jtag_slave_burst_adapter|altera_merlin_burst_adapter_13_1.burst_adapter|the_min                 ; 31    ; 0              ; 2            ; 0              ; 7      ; 0               ; 0             ; 0               ; 0     ; 0              ; 0            ; 0                ; 0                 ;
; soc_system_inst|mm_interconnect_0|jtag_uart_0_avalon_jtag_slave_burst_adapter|altera_merlin_burst_adapter_13_1.burst_adapter|the_burstwrap_increment ; 7     ; 0              ; 0            ; 0              ; 7      ; 0               ; 0             ; 0               ; 0     ; 0              ; 0            ; 0                ; 0                 ;
; soc_system_inst|mm_interconnect_0|jtag_uart_0_avalon_jtag_slave_burst_adapter|altera_merlin_burst_adapter_13_1.burst_adapter|align_address_to_size   ; 29    ; 5              ; 0            ; 5              ; 23     ; 5               ; 5             ; 5               ; 0     ; 0              ; 0            ; 0                ; 0                 ;
; soc_system_inst|mm_interconnect_0|jtag_uart_0_avalon_jtag_slave_burst_adapter|altera_merlin_burst_adapter_13_1.burst_adapter                         ; 124   ; 0              ; 0            ; 0              ; 122    ; 0               ; 0             ; 0               ; 0     ; 0              ; 0            ; 0                ; 0                 ;
; soc_system_inst|mm_interconnect_0|jtag_uart_0_avalon_jtag_slave_burst_adapter                                                                        ; 124   ; 0              ; 0            ; 0              ; 122    ; 0               ; 0             ; 0               ; 0     ; 0              ; 0            ; 0                ; 0                 ;
; soc_system_inst|mm_interconnect_0|adc_0_adc_slave_burst_adapter|altera_merlin_burst_adapter_13_1.burst_adapter|the_min|dc_sub|subtract               ; 17    ; 1              ; 0            ; 1              ; 8      ; 1               ; 1             ; 1               ; 0     ; 0              ; 0            ; 0                ; 0                 ;
; soc_system_inst|mm_interconnect_0|adc_0_adc_slave_burst_adapter|altera_merlin_burst_adapter_13_1.burst_adapter|the_min|dc_sub                        ; 16    ; 2              ; 0            ; 2              ; 8      ; 2               ; 2             ; 2               ; 0     ; 0              ; 0            ; 0                ; 0                 ;
; soc_system_inst|mm_interconnect_0|adc_0_adc_slave_burst_adapter|altera_merlin_burst_adapter_13_1.burst_adapter|the_min|db_sub|subtract               ; 17    ; 1              ; 0            ; 1              ; 8      ; 1               ; 1             ; 1               ; 0     ; 0              ; 0            ; 0                ; 0                 ;
; soc_system_inst|mm_interconnect_0|adc_0_adc_slave_burst_adapter|altera_merlin_burst_adapter_13_1.burst_adapter|the_min|db_sub                        ; 16    ; 2              ; 0            ; 2              ; 8      ; 2               ; 2             ; 2               ; 0     ; 0              ; 0            ; 0                ; 0                 ;
; soc_system_inst|mm_interconnect_0|adc_0_adc_slave_burst_adapter|altera_merlin_burst_adapter_13_1.burst_adapter|the_min|da_sub|subtract               ; 17    ; 1              ; 0            ; 1              ; 8      ; 1               ; 1             ; 1               ; 0     ; 0              ; 0            ; 0                ; 0                 ;
; soc_system_inst|mm_interconnect_0|adc_0_adc_slave_burst_adapter|altera_merlin_burst_adapter_13_1.burst_adapter|the_min|da_sub                        ; 16    ; 2              ; 0            ; 2              ; 8      ; 2               ; 2             ; 2               ; 0     ; 0              ; 0            ; 0                ; 0                 ;
; soc_system_inst|mm_interconnect_0|adc_0_adc_slave_burst_adapter|altera_merlin_burst_adapter_13_1.burst_adapter|the_min|bc_sub|subtract               ; 17    ; 1              ; 0            ; 1              ; 8      ; 1               ; 1             ; 1               ; 0     ; 0              ; 0            ; 0                ; 0                 ;
; soc_system_inst|mm_interconnect_0|adc_0_adc_slave_burst_adapter|altera_merlin_burst_adapter_13_1.burst_adapter|the_min|bc_sub                        ; 16    ; 2              ; 0            ; 2              ; 8      ; 2               ; 2             ; 2               ; 0     ; 0              ; 0            ; 0                ; 0                 ;
; soc_system_inst|mm_interconnect_0|adc_0_adc_slave_burst_adapter|altera_merlin_burst_adapter_13_1.burst_adapter|the_min|ac_sub|subtract               ; 17    ; 1              ; 0            ; 1              ; 8      ; 1               ; 1             ; 1               ; 0     ; 0              ; 0            ; 0                ; 0                 ;
; soc_system_inst|mm_interconnect_0|adc_0_adc_slave_burst_adapter|altera_merlin_burst_adapter_13_1.burst_adapter|the_min|ac_sub                        ; 16    ; 2              ; 0            ; 2              ; 8      ; 2               ; 2             ; 2               ; 0     ; 0              ; 0            ; 0                ; 0                 ;
; soc_system_inst|mm_interconnect_0|adc_0_adc_slave_burst_adapter|altera_merlin_burst_adapter_13_1.burst_adapter|the_min|ab_sub|subtract               ; 17    ; 1              ; 0            ; 1              ; 8      ; 1               ; 1             ; 1               ; 0     ; 0              ; 0            ; 0                ; 0                 ;
; soc_system_inst|mm_interconnect_0|adc_0_adc_slave_burst_adapter|altera_merlin_burst_adapter_13_1.burst_adapter|the_min|ab_sub                        ; 16    ; 2              ; 0            ; 2              ; 8      ; 2               ; 2             ; 2               ; 0     ; 0              ; 0            ; 0                ; 0                 ;
; soc_system_inst|mm_interconnect_0|adc_0_adc_slave_burst_adapter|altera_merlin_burst_adapter_13_1.burst_adapter|the_min                               ; 31    ; 0              ; 2            ; 0              ; 7      ; 0               ; 0             ; 0               ; 0     ; 0              ; 0            ; 0                ; 0                 ;
; soc_system_inst|mm_interconnect_0|adc_0_adc_slave_burst_adapter|altera_merlin_burst_adapter_13_1.burst_adapter|the_burstwrap_increment               ; 7     ; 0              ; 0            ; 0              ; 7      ; 0               ; 0             ; 0               ; 0     ; 0              ; 0            ; 0                ; 0                 ;
; soc_system_inst|mm_interconnect_0|adc_0_adc_slave_burst_adapter|altera_merlin_burst_adapter_13_1.burst_adapter|align_address_to_size                 ; 29    ; 5              ; 0            ; 5              ; 23     ; 5               ; 5             ; 5               ; 0     ; 0              ; 0            ; 0                ; 0                 ;
; soc_system_inst|mm_interconnect_0|adc_0_adc_slave_burst_adapter|altera_merlin_burst_adapter_13_1.burst_adapter                                       ; 124   ; 0              ; 0            ; 0              ; 122    ; 0               ; 0             ; 0               ; 0     ; 0              ; 0            ; 0                ; 0                 ;
; soc_system_inst|mm_interconnect_0|adc_0_adc_slave_burst_adapter                                                                                      ; 124   ; 0              ; 0            ; 0              ; 122    ; 0               ; 0             ; 0               ; 0     ; 0              ; 0            ; 0                ; 0                 ;
; soc_system_inst|mm_interconnect_0|hps_0_h2f_lw_axi_master_rd_limiter                                                                                 ; 246   ; 0              ; 0            ; 0              ; 247    ; 0               ; 0             ; 0               ; 0     ; 0              ; 0            ; 0                ; 0                 ;
; soc_system_inst|mm_interconnect_0|hps_0_h2f_lw_axi_master_wr_limiter                                                                                 ; 246   ; 0              ; 0            ; 0              ; 247    ; 0               ; 0             ; 0               ; 0     ; 0              ; 0            ; 0                ; 0                 ;
; soc_system_inst|mm_interconnect_0|router_005|the_default_decode                                                                                      ; 0     ; 8              ; 0            ; 8              ; 8      ; 8               ; 8             ; 8               ; 0     ; 0              ; 0            ; 0                ; 0                 ;
; soc_system_inst|mm_interconnect_0|router_005                                                                                                         ; 120   ; 0              ; 2            ; 0              ; 122    ; 0               ; 0             ; 0               ; 0     ; 0              ; 0            ; 0                ; 0                 ;
; soc_system_inst|mm_interconnect_0|router_004|the_default_decode                                                                                      ; 0     ; 8              ; 0            ; 8              ; 8      ; 8               ; 8             ; 8               ; 0     ; 0              ; 0            ; 0                ; 0                 ;
; soc_system_inst|mm_interconnect_0|router_004                                                                                                         ; 120   ; 0              ; 2            ; 0              ; 122    ; 0               ; 0             ; 0               ; 0     ; 0              ; 0            ; 0                ; 0                 ;
; soc_system_inst|mm_interconnect_0|router_003|the_default_decode                                                                                      ; 0     ; 8              ; 0            ; 8              ; 8      ; 8               ; 8             ; 8               ; 0     ; 0              ; 0            ; 0                ; 0                 ;
; soc_system_inst|mm_interconnect_0|router_003                                                                                                         ; 120   ; 0              ; 2            ; 0              ; 122    ; 0               ; 0             ; 0               ; 0     ; 0              ; 0            ; 0                ; 0                 ;
; soc_system_inst|mm_interconnect_0|router_002|the_default_decode                                                                                      ; 0     ; 8              ; 0            ; 8              ; 8      ; 8               ; 8             ; 8               ; 0     ; 0              ; 0            ; 0                ; 0                 ;
; soc_system_inst|mm_interconnect_0|router_002                                                                                                         ; 120   ; 0              ; 2            ; 0              ; 122    ; 0               ; 0             ; 0               ; 0     ; 0              ; 0            ; 0                ; 0                 ;
; soc_system_inst|mm_interconnect_0|router_001|the_default_decode                                                                                      ; 0     ; 6              ; 0            ; 6              ; 6      ; 6               ; 6             ; 6               ; 0     ; 0              ; 0            ; 0                ; 0                 ;
; soc_system_inst|mm_interconnect_0|router_001                                                                                                         ; 120   ; 0              ; 4            ; 0              ; 122    ; 0               ; 0             ; 0               ; 0     ; 0              ; 0            ; 0                ; 0                 ;
; soc_system_inst|mm_interconnect_0|router|the_default_decode                                                                                          ; 0     ; 6              ; 0            ; 6              ; 6      ; 6               ; 6             ; 6               ; 0     ; 0              ; 0            ; 0                ; 0                 ;
; soc_system_inst|mm_interconnect_0|router                                                                                                             ; 120   ; 0              ; 4            ; 0              ; 122    ; 0               ; 0             ; 0               ; 0     ; 0              ; 0            ; 0                ; 0                 ;
; soc_system_inst|mm_interconnect_0|pio_0_s1_agent_rdata_fifo                                                                                          ; 79    ; 41             ; 0            ; 41             ; 36     ; 41              ; 41            ; 41              ; 0     ; 0              ; 0            ; 0                ; 0                 ;
; soc_system_inst|mm_interconnect_0|pio_0_s1_agent_rsp_fifo                                                                                            ; 160   ; 39             ; 0            ; 39             ; 119    ; 39              ; 39            ; 39              ; 0     ; 0              ; 0            ; 0                ; 0                 ;
; soc_system_inst|mm_interconnect_0|pio_0_s1_agent|uncompressor                                                                                        ; 45    ; 1              ; 0            ; 1              ; 43     ; 1               ; 1             ; 1               ; 0     ; 0              ; 0            ; 0                ; 0                 ;
; soc_system_inst|mm_interconnect_0|pio_0_s1_agent                                                                                                     ; 317   ; 39             ; 41           ; 39             ; 337    ; 39              ; 39            ; 39              ; 0     ; 0              ; 0            ; 0                ; 0                 ;
; soc_system_inst|mm_interconnect_0|sysid_qsys_0_control_slave_agent_rdata_fifo                                                                        ; 79    ; 41             ; 0            ; 41             ; 36     ; 41              ; 41            ; 41              ; 0     ; 0              ; 0            ; 0                ; 0                 ;
; soc_system_inst|mm_interconnect_0|sysid_qsys_0_control_slave_agent_rsp_fifo                                                                          ; 160   ; 39             ; 0            ; 39             ; 119    ; 39              ; 39            ; 39              ; 0     ; 0              ; 0            ; 0                ; 0                 ;
; soc_system_inst|mm_interconnect_0|sysid_qsys_0_control_slave_agent|uncompressor                                                                      ; 45    ; 1              ; 0            ; 1              ; 43     ; 1               ; 1             ; 1               ; 0     ; 0              ; 0            ; 0                ; 0                 ;
; soc_system_inst|mm_interconnect_0|sysid_qsys_0_control_slave_agent                                                                                   ; 317   ; 39             ; 41           ; 39             ; 337    ; 39              ; 39            ; 39              ; 0     ; 0              ; 0            ; 0                ; 0                 ;
; soc_system_inst|mm_interconnect_0|jtag_uart_0_avalon_jtag_slave_agent_rdata_fifo                                                                     ; 79    ; 41             ; 0            ; 41             ; 36     ; 41              ; 41            ; 41              ; 0     ; 0              ; 0            ; 0                ; 0                 ;
; soc_system_inst|mm_interconnect_0|jtag_uart_0_avalon_jtag_slave_agent_rsp_fifo                                                                       ; 160   ; 39             ; 0            ; 39             ; 119    ; 39              ; 39            ; 39              ; 0     ; 0              ; 0            ; 0                ; 0                 ;
; soc_system_inst|mm_interconnect_0|jtag_uart_0_avalon_jtag_slave_agent|uncompressor                                                                   ; 45    ; 1              ; 0            ; 1              ; 43     ; 1               ; 1             ; 1               ; 0     ; 0              ; 0            ; 0                ; 0                 ;
; soc_system_inst|mm_interconnect_0|jtag_uart_0_avalon_jtag_slave_agent                                                                                ; 317   ; 39             ; 41           ; 39             ; 337    ; 39              ; 39            ; 39              ; 0     ; 0              ; 0            ; 0                ; 0                 ;
; soc_system_inst|mm_interconnect_0|adc_0_adc_slave_agent_rdata_fifo                                                                                   ; 79    ; 41             ; 0            ; 41             ; 36     ; 41              ; 41            ; 41              ; 0     ; 0              ; 0            ; 0                ; 0                 ;
; soc_system_inst|mm_interconnect_0|adc_0_adc_slave_agent_rsp_fifo                                                                                     ; 160   ; 39             ; 0            ; 39             ; 119    ; 39              ; 39            ; 39              ; 0     ; 0              ; 0            ; 0                ; 0                 ;
; soc_system_inst|mm_interconnect_0|adc_0_adc_slave_agent|uncompressor                                                                                 ; 45    ; 1              ; 0            ; 1              ; 43     ; 1               ; 1             ; 1               ; 0     ; 0              ; 0            ; 0                ; 0                 ;
; soc_system_inst|mm_interconnect_0|adc_0_adc_slave_agent                                                                                              ; 317   ; 39             ; 41           ; 39             ; 337    ; 39              ; 39            ; 39              ; 0     ; 0              ; 0            ; 0                ; 0                 ;
; soc_system_inst|mm_interconnect_0|hps_0_h2f_lw_axi_master_agent|align_address_to_size                                                                ; 38    ; 0              ; 1            ; 0              ; 23     ; 0               ; 0             ; 0               ; 0     ; 0              ; 0            ; 0                ; 0                 ;
; soc_system_inst|mm_interconnect_0|hps_0_h2f_lw_axi_master_agent                                                                                      ; 421   ; 87             ; 191          ; 87             ; 302    ; 87              ; 87            ; 87              ; 0     ; 0              ; 0            ; 0                ; 0                 ;
; soc_system_inst|mm_interconnect_0|pio_0_s1_translator                                                                                                ; 104   ; 6              ; 22           ; 6              ; 70     ; 6               ; 6             ; 6               ; 0     ; 0              ; 0            ; 0                ; 0                 ;
; soc_system_inst|mm_interconnect_0|sysid_qsys_0_control_slave_translator                                                                              ; 104   ; 6              ; 20           ; 6              ; 35     ; 6               ; 6             ; 6               ; 0     ; 0              ; 0            ; 0                ; 0                 ;
; soc_system_inst|mm_interconnect_0|jtag_uart_0_avalon_jtag_slave_translator                                                                           ; 104   ; 5              ; 23           ; 5              ; 70     ; 5               ; 5             ; 5               ; 0     ; 0              ; 0            ; 0                ; 0                 ;
; soc_system_inst|mm_interconnect_0|adc_0_adc_slave_translator                                                                                         ; 104   ; 5              ; 18           ; 5              ; 71     ; 5               ; 5             ; 5               ; 0     ; 0              ; 0            ; 0                ; 0                 ;
; soc_system_inst|mm_interconnect_0                                                                                                                    ; 289   ; 0              ; 0            ; 0              ; 176    ; 0               ; 0             ; 0               ; 0     ; 0              ; 0            ; 0                ; 0                 ;
; soc_system_inst|sysid_qsys_0                                                                                                                         ; 3     ; 13             ; 2            ; 13             ; 32     ; 13              ; 13            ; 13              ; 0     ; 0              ; 0            ; 0                ; 0                 ;
; soc_system_inst|pio_0                                                                                                                                ; 38    ; 22             ; 22           ; 22             ; 42     ; 22              ; 22            ; 22              ; 0     ; 0              ; 0            ; 0                ; 0                 ;
; soc_system_inst|jtag_uart_0|the_soc_system_jtag_uart_0_scfifo_r|rfifo|auto_generated|dpfifo|wr_ptr                                                   ; 4     ; 0              ; 0            ; 0              ; 6      ; 0               ; 0             ; 0               ; 0     ; 0              ; 0            ; 0                ; 0                 ;
; soc_system_inst|jtag_uart_0|the_soc_system_jtag_uart_0_scfifo_r|rfifo|auto_generated|dpfifo|rd_ptr_count                                             ; 4     ; 0              ; 0            ; 0              ; 6      ; 0               ; 0             ; 0               ; 0     ; 0              ; 0            ; 0                ; 0                 ;
; soc_system_inst|jtag_uart_0|the_soc_system_jtag_uart_0_scfifo_r|rfifo|auto_generated|dpfifo|FIFOram                                                  ; 24    ; 0              ; 0            ; 0              ; 8      ; 0               ; 0             ; 0               ; 0     ; 0              ; 0            ; 0                ; 0                 ;
; soc_system_inst|jtag_uart_0|the_soc_system_jtag_uart_0_scfifo_r|rfifo|auto_generated|dpfifo|fifo_state|count_usedw                                   ; 5     ; 0              ; 0            ; 0              ; 6      ; 0               ; 0             ; 0               ; 0     ; 0              ; 0            ; 0                ; 0                 ;
; soc_system_inst|jtag_uart_0|the_soc_system_jtag_uart_0_scfifo_r|rfifo|auto_generated|dpfifo|fifo_state                                               ; 5     ; 0              ; 0            ; 0              ; 8      ; 0               ; 0             ; 0               ; 0     ; 0              ; 0            ; 0                ; 0                 ;
; soc_system_inst|jtag_uart_0|the_soc_system_jtag_uart_0_scfifo_r|rfifo|auto_generated|dpfifo                                                          ; 13    ; 0              ; 0            ; 0              ; 16     ; 0               ; 0             ; 0               ; 0     ; 0              ; 0            ; 0                ; 0                 ;
; soc_system_inst|jtag_uart_0|the_soc_system_jtag_uart_0_scfifo_r|rfifo|auto_generated                                                                 ; 12    ; 0              ; 0            ; 0              ; 16     ; 0               ; 0             ; 0               ; 0     ; 0              ; 0            ; 0                ; 0                 ;
; soc_system_inst|jtag_uart_0|the_soc_system_jtag_uart_0_scfifo_r                                                                                      ; 13    ; 0              ; 1            ; 0              ; 16     ; 0               ; 0             ; 0               ; 0     ; 0              ; 0            ; 0                ; 0                 ;
; soc_system_inst|jtag_uart_0|the_soc_system_jtag_uart_0_scfifo_w|wfifo|auto_generated|dpfifo|wr_ptr                                                   ; 4     ; 0              ; 0            ; 0              ; 6      ; 0               ; 0             ; 0               ; 0     ; 0              ; 0            ; 0                ; 0                 ;
; soc_system_inst|jtag_uart_0|the_soc_system_jtag_uart_0_scfifo_w|wfifo|auto_generated|dpfifo|rd_ptr_count                                             ; 4     ; 0              ; 0            ; 0              ; 6      ; 0               ; 0             ; 0               ; 0     ; 0              ; 0            ; 0                ; 0                 ;
; soc_system_inst|jtag_uart_0|the_soc_system_jtag_uart_0_scfifo_w|wfifo|auto_generated|dpfifo|FIFOram                                                  ; 24    ; 0              ; 0            ; 0              ; 8      ; 0               ; 0             ; 0               ; 0     ; 0              ; 0            ; 0                ; 0                 ;
; soc_system_inst|jtag_uart_0|the_soc_system_jtag_uart_0_scfifo_w|wfifo|auto_generated|dpfifo|fifo_state|count_usedw                                   ; 5     ; 0              ; 0            ; 0              ; 6      ; 0               ; 0             ; 0               ; 0     ; 0              ; 0            ; 0                ; 0                 ;
; soc_system_inst|jtag_uart_0|the_soc_system_jtag_uart_0_scfifo_w|wfifo|auto_generated|dpfifo|fifo_state                                               ; 5     ; 0              ; 0            ; 0              ; 8      ; 0               ; 0             ; 0               ; 0     ; 0              ; 0            ; 0                ; 0                 ;
; soc_system_inst|jtag_uart_0|the_soc_system_jtag_uart_0_scfifo_w|wfifo|auto_generated|dpfifo                                                          ; 13    ; 0              ; 0            ; 0              ; 16     ; 0               ; 0             ; 0               ; 0     ; 0              ; 0            ; 0                ; 0                 ;
; soc_system_inst|jtag_uart_0|the_soc_system_jtag_uart_0_scfifo_w|wfifo|auto_generated                                                                 ; 12    ; 0              ; 0            ; 0              ; 16     ; 0               ; 0             ; 0               ; 0     ; 0              ; 0            ; 0                ; 0                 ;
; soc_system_inst|jtag_uart_0|the_soc_system_jtag_uart_0_scfifo_w                                                                                      ; 12    ; 0              ; 0            ; 0              ; 16     ; 0               ; 0             ; 0               ; 0     ; 0              ; 0            ; 0                ; 0                 ;
; soc_system_inst|jtag_uart_0                                                                                                                          ; 38    ; 10             ; 23           ; 10             ; 34     ; 10              ; 10            ; 10              ; 0     ; 0              ; 0            ; 0                ; 0                 ;
; soc_system_inst|hps_0|hps_io|border|hps_sdram_inst|dll                                                                                               ; 2     ; 0              ; 0            ; 0              ; 7      ; 0               ; 0             ; 0               ; 0     ; 0              ; 0            ; 0                ; 0                 ;
; soc_system_inst|hps_0|hps_io|border|hps_sdram_inst|oct                                                                                               ; 1     ; 0              ; 0            ; 0              ; 32     ; 0               ; 0             ; 0               ; 0     ; 0              ; 0            ; 0                ; 0                 ;
; soc_system_inst|hps_0|hps_io|border|hps_sdram_inst|c0                                                                                                ; 228   ; 173            ; 8            ; 173            ; 280    ; 173             ; 173           ; 173             ; 0     ; 0              ; 0            ; 0                ; 0                 ;
; soc_system_inst|hps_0|hps_io|border|hps_sdram_inst|seq                                                                                               ; 0     ; 0              ; 0            ; 0              ; 0      ; 0               ; 0             ; 0               ; 0     ; 0              ; 0            ; 0                ; 0                 ;
; soc_system_inst|hps_0|hps_io|border|hps_sdram_inst|p0|umemphy|uio_pads|dq_ddio[3].ubidir_dq_dqs|altdq_dqs2_inst                                      ; 135   ; 1              ; 3            ; 1              ; 36     ; 1               ; 1             ; 1               ; 10    ; 0              ; 0            ; 0                ; 0                 ;
; soc_system_inst|hps_0|hps_io|border|hps_sdram_inst|p0|umemphy|uio_pads|dq_ddio[3].ubidir_dq_dqs                                                      ; 135   ; 0              ; 0            ; 0              ; 36     ; 0               ; 0             ; 0               ; 10    ; 0              ; 0            ; 0                ; 0                 ;
; soc_system_inst|hps_0|hps_io|border|hps_sdram_inst|p0|umemphy|uio_pads|dq_ddio[2].ubidir_dq_dqs|altdq_dqs2_inst                                      ; 135   ; 1              ; 3            ; 1              ; 36     ; 1               ; 1             ; 1               ; 10    ; 0              ; 0            ; 0                ; 0                 ;
; soc_system_inst|hps_0|hps_io|border|hps_sdram_inst|p0|umemphy|uio_pads|dq_ddio[2].ubidir_dq_dqs                                                      ; 135   ; 0              ; 0            ; 0              ; 36     ; 0               ; 0             ; 0               ; 10    ; 0              ; 0            ; 0                ; 0                 ;
; soc_system_inst|hps_0|hps_io|border|hps_sdram_inst|p0|umemphy|uio_pads|dq_ddio[1].ubidir_dq_dqs|altdq_dqs2_inst                                      ; 135   ; 1              ; 3            ; 1              ; 36     ; 1               ; 1             ; 1               ; 10    ; 0              ; 0            ; 0                ; 0                 ;
; soc_system_inst|hps_0|hps_io|border|hps_sdram_inst|p0|umemphy|uio_pads|dq_ddio[1].ubidir_dq_dqs                                                      ; 135   ; 0              ; 0            ; 0              ; 36     ; 0               ; 0             ; 0               ; 10    ; 0              ; 0            ; 0                ; 0                 ;
; soc_system_inst|hps_0|hps_io|border|hps_sdram_inst|p0|umemphy|uio_pads|dq_ddio[0].ubidir_dq_dqs|altdq_dqs2_inst                                      ; 135   ; 1              ; 3            ; 1              ; 36     ; 1               ; 1             ; 1               ; 10    ; 0              ; 0            ; 0                ; 0                 ;
; soc_system_inst|hps_0|hps_io|border|hps_sdram_inst|p0|umemphy|uio_pads|dq_ddio[0].ubidir_dq_dqs                                                      ; 135   ; 0              ; 0            ; 0              ; 36     ; 0               ; 0             ; 0               ; 10    ; 0              ; 0            ; 0                ; 0                 ;
; soc_system_inst|hps_0|hps_io|border|hps_sdram_inst|p0|umemphy|uio_pads|uaddr_cmd_pads|clock_gen[0].uclk_generator                                    ; 1     ; 0              ; 0            ; 0              ; 2      ; 0               ; 0             ; 0               ; 0     ; 0              ; 0            ; 0                ; 0                 ;
; soc_system_inst|hps_0|hps_io|border|hps_sdram_inst|p0|umemphy|uio_pads|uaddr_cmd_pads|clock_gen[0].umem_ck_pad|auto_generated                        ; 3     ; 0              ; 0            ; 0              ; 1      ; 0               ; 0             ; 0               ; 0     ; 0              ; 0            ; 0                ; 0                 ;
; soc_system_inst|hps_0|hps_io|border|hps_sdram_inst|p0|umemphy|uio_pads|uaddr_cmd_pads|ureset_n_pad                                                   ; 7     ; 1              ; 0            ; 1              ; 1      ; 1               ; 1             ; 1               ; 0     ; 0              ; 0            ; 0                ; 0                 ;
; soc_system_inst|hps_0|hps_io|border|hps_sdram_inst|p0|umemphy|uio_pads|uaddr_cmd_pads|ucmd_pad                                                       ; 37    ; 1              ; 0            ; 1              ; 6      ; 1               ; 1             ; 1               ; 0     ; 0              ; 0            ; 0                ; 0                 ;
; soc_system_inst|hps_0|hps_io|border|hps_sdram_inst|p0|umemphy|uio_pads|uaddr_cmd_pads|ubank_pad                                                      ; 19    ; 1              ; 0            ; 1              ; 3      ; 1               ; 1             ; 1               ; 0     ; 0              ; 0            ; 0                ; 0                 ;
; soc_system_inst|hps_0|hps_io|border|hps_sdram_inst|p0|umemphy|uio_pads|uaddr_cmd_pads|uaddress_pad                                                   ; 91    ; 1              ; 0            ; 1              ; 15     ; 1               ; 1             ; 1               ; 0     ; 0              ; 0            ; 0                ; 0                 ;
; soc_system_inst|hps_0|hps_io|border|hps_sdram_inst|p0|umemphy|uio_pads|uaddr_cmd_pads|address_gen[24].acv_ac_ldc                                     ; 10    ; 0              ; 1            ; 0              ; 1      ; 0               ; 0             ; 0               ; 0     ; 0              ; 0            ; 0                ; 0                 ;
; soc_system_inst|hps_0|hps_io|border|hps_sdram_inst|p0|umemphy|uio_pads|uaddr_cmd_pads|address_gen[23].acv_ac_ldc                                     ; 10    ; 0              ; 1            ; 0              ; 1      ; 0               ; 0             ; 0               ; 0     ; 0              ; 0            ; 0                ; 0                 ;
; soc_system_inst|hps_0|hps_io|border|hps_sdram_inst|p0|umemphy|uio_pads|uaddr_cmd_pads|address_gen[22].acv_ac_ldc                                     ; 10    ; 0              ; 1            ; 0              ; 1      ; 0               ; 0             ; 0               ; 0     ; 0              ; 0            ; 0                ; 0                 ;
; soc_system_inst|hps_0|hps_io|border|hps_sdram_inst|p0|umemphy|uio_pads|uaddr_cmd_pads|address_gen[21].acv_ac_ldc                                     ; 10    ; 0              ; 1            ; 0              ; 1      ; 0               ; 0             ; 0               ; 0     ; 0              ; 0            ; 0                ; 0                 ;
; soc_system_inst|hps_0|hps_io|border|hps_sdram_inst|p0|umemphy|uio_pads|uaddr_cmd_pads|address_gen[20].acv_ac_ldc                                     ; 10    ; 0              ; 1            ; 0              ; 1      ; 0               ; 0             ; 0               ; 0     ; 0              ; 0            ; 0                ; 0                 ;
; soc_system_inst|hps_0|hps_io|border|hps_sdram_inst|p0|umemphy|uio_pads|uaddr_cmd_pads|address_gen[19].acv_ac_ldc                                     ; 10    ; 0              ; 1            ; 0              ; 1      ; 0               ; 0             ; 0               ; 0     ; 0              ; 0            ; 0                ; 0                 ;
; soc_system_inst|hps_0|hps_io|border|hps_sdram_inst|p0|umemphy|uio_pads|uaddr_cmd_pads|address_gen[18].acv_ac_ldc                                     ; 10    ; 0              ; 1            ; 0              ; 1      ; 0               ; 0             ; 0               ; 0     ; 0              ; 0            ; 0                ; 0                 ;
; soc_system_inst|hps_0|hps_io|border|hps_sdram_inst|p0|umemphy|uio_pads|uaddr_cmd_pads|address_gen[17].acv_ac_ldc                                     ; 10    ; 0              ; 1            ; 0              ; 1      ; 0               ; 0             ; 0               ; 0     ; 0              ; 0            ; 0                ; 0                 ;
; soc_system_inst|hps_0|hps_io|border|hps_sdram_inst|p0|umemphy|uio_pads|uaddr_cmd_pads|address_gen[16].acv_ac_ldc                                     ; 10    ; 0              ; 1            ; 0              ; 1      ; 0               ; 0             ; 0               ; 0     ; 0              ; 0            ; 0                ; 0                 ;
; soc_system_inst|hps_0|hps_io|border|hps_sdram_inst|p0|umemphy|uio_pads|uaddr_cmd_pads|address_gen[15].acv_ac_ldc                                     ; 10    ; 0              ; 1            ; 0              ; 1      ; 0               ; 0             ; 0               ; 0     ; 0              ; 0            ; 0                ; 0                 ;
; soc_system_inst|hps_0|hps_io|border|hps_sdram_inst|p0|umemphy|uio_pads|uaddr_cmd_pads|address_gen[14].acv_ac_ldc                                     ; 10    ; 0              ; 1            ; 0              ; 1      ; 0               ; 0             ; 0               ; 0     ; 0              ; 0            ; 0                ; 0                 ;
; soc_system_inst|hps_0|hps_io|border|hps_sdram_inst|p0|umemphy|uio_pads|uaddr_cmd_pads|address_gen[13].acv_ac_ldc                                     ; 10    ; 0              ; 1            ; 0              ; 1      ; 0               ; 0             ; 0               ; 0     ; 0              ; 0            ; 0                ; 0                 ;
; soc_system_inst|hps_0|hps_io|border|hps_sdram_inst|p0|umemphy|uio_pads|uaddr_cmd_pads|address_gen[12].acv_ac_ldc                                     ; 10    ; 0              ; 1            ; 0              ; 1      ; 0               ; 0             ; 0               ; 0     ; 0              ; 0            ; 0                ; 0                 ;
; soc_system_inst|hps_0|hps_io|border|hps_sdram_inst|p0|umemphy|uio_pads|uaddr_cmd_pads|address_gen[11].acv_ac_ldc                                     ; 10    ; 0              ; 1            ; 0              ; 1      ; 0               ; 0             ; 0               ; 0     ; 0              ; 0            ; 0                ; 0                 ;
; soc_system_inst|hps_0|hps_io|border|hps_sdram_inst|p0|umemphy|uio_pads|uaddr_cmd_pads|address_gen[10].acv_ac_ldc                                     ; 10    ; 0              ; 1            ; 0              ; 1      ; 0               ; 0             ; 0               ; 0     ; 0              ; 0            ; 0                ; 0                 ;
; soc_system_inst|hps_0|hps_io|border|hps_sdram_inst|p0|umemphy|uio_pads|uaddr_cmd_pads|address_gen[9].acv_ac_ldc                                      ; 10    ; 0              ; 1            ; 0              ; 1      ; 0               ; 0             ; 0               ; 0     ; 0              ; 0            ; 0                ; 0                 ;
; soc_system_inst|hps_0|hps_io|border|hps_sdram_inst|p0|umemphy|uio_pads|uaddr_cmd_pads|address_gen[8].acv_ac_ldc                                      ; 10    ; 0              ; 1            ; 0              ; 1      ; 0               ; 0             ; 0               ; 0     ; 0              ; 0            ; 0                ; 0                 ;
; soc_system_inst|hps_0|hps_io|border|hps_sdram_inst|p0|umemphy|uio_pads|uaddr_cmd_pads|address_gen[7].acv_ac_ldc                                      ; 10    ; 0              ; 1            ; 0              ; 1      ; 0               ; 0             ; 0               ; 0     ; 0              ; 0            ; 0                ; 0                 ;
; soc_system_inst|hps_0|hps_io|border|hps_sdram_inst|p0|umemphy|uio_pads|uaddr_cmd_pads|address_gen[6].acv_ac_ldc                                      ; 10    ; 0              ; 1            ; 0              ; 1      ; 0               ; 0             ; 0               ; 0     ; 0              ; 0            ; 0                ; 0                 ;
; soc_system_inst|hps_0|hps_io|border|hps_sdram_inst|p0|umemphy|uio_pads|uaddr_cmd_pads|address_gen[5].acv_ac_ldc                                      ; 10    ; 0              ; 1            ; 0              ; 1      ; 0               ; 0             ; 0               ; 0     ; 0              ; 0            ; 0                ; 0                 ;
; soc_system_inst|hps_0|hps_io|border|hps_sdram_inst|p0|umemphy|uio_pads|uaddr_cmd_pads|address_gen[4].acv_ac_ldc                                      ; 10    ; 0              ; 1            ; 0              ; 1      ; 0               ; 0             ; 0               ; 0     ; 0              ; 0            ; 0                ; 0                 ;
; soc_system_inst|hps_0|hps_io|border|hps_sdram_inst|p0|umemphy|uio_pads|uaddr_cmd_pads|address_gen[3].acv_ac_ldc                                      ; 10    ; 0              ; 1            ; 0              ; 1      ; 0               ; 0             ; 0               ; 0     ; 0              ; 0            ; 0                ; 0                 ;
; soc_system_inst|hps_0|hps_io|border|hps_sdram_inst|p0|umemphy|uio_pads|uaddr_cmd_pads|address_gen[2].acv_ac_ldc                                      ; 10    ; 0              ; 1            ; 0              ; 1      ; 0               ; 0             ; 0               ; 0     ; 0              ; 0            ; 0                ; 0                 ;
; soc_system_inst|hps_0|hps_io|border|hps_sdram_inst|p0|umemphy|uio_pads|uaddr_cmd_pads|address_gen[1].acv_ac_ldc                                      ; 10    ; 0              ; 1            ; 0              ; 1      ; 0               ; 0             ; 0               ; 0     ; 0              ; 0            ; 0                ; 0                 ;
; soc_system_inst|hps_0|hps_io|border|hps_sdram_inst|p0|umemphy|uio_pads|uaddr_cmd_pads|address_gen[0].acv_ac_ldc                                      ; 10    ; 0              ; 1            ; 0              ; 1      ; 0               ; 0             ; 0               ; 0     ; 0              ; 0            ; 0                ; 0                 ;
; soc_system_inst|hps_0|hps_io|border|hps_sdram_inst|p0|umemphy|uio_pads|uaddr_cmd_pads                                                                ; 118   ; 0              ; 5            ; 0              ; 27     ; 0               ; 0             ; 0               ; 0     ; 0              ; 0            ; 0                ; 0                 ;
; soc_system_inst|hps_0|hps_io|border|hps_sdram_inst|p0|umemphy|uio_pads                                                                               ; 633   ; 58             ; 118          ; 58             ; 220    ; 58              ; 58            ; 58              ; 40    ; 0              ; 0            ; 0                ; 0                 ;
; soc_system_inst|hps_0|hps_io|border|hps_sdram_inst|p0|umemphy|memphy_ldc                                                                             ; 10    ; 0              ; 1            ; 0              ; 4      ; 0               ; 0             ; 0               ; 0     ; 0              ; 0            ; 0                ; 0                 ;
; soc_system_inst|hps_0|hps_io|border|hps_sdram_inst|p0|umemphy                                                                                        ; 975   ; 1              ; 2            ; 1              ; 366    ; 1               ; 1             ; 1               ; 40    ; 0              ; 0            ; 0                ; 0                 ;
; soc_system_inst|hps_0|hps_io|border|hps_sdram_inst|p0                                                                                                ; 878   ; 545            ; 0            ; 545            ; 130    ; 545             ; 545           ; 545             ; 40    ; 0              ; 0            ; 0                ; 0                 ;
; soc_system_inst|hps_0|hps_io|border|hps_sdram_inst|pll                                                                                               ; 2     ; 1              ; 2            ; 1              ; 12     ; 1               ; 1             ; 1               ; 0     ; 0              ; 0            ; 0                ; 0                 ;
; soc_system_inst|hps_0|hps_io|border|hps_sdram_inst                                                                                                   ; 1     ; 0              ; 0            ; 0              ; 31     ; 0               ; 0             ; 0               ; 40    ; 0              ; 0            ; 0                ; 0                 ;
; soc_system_inst|hps_0|hps_io|border                                                                                                                  ; 0     ; 0              ; 0            ; 0              ; 0      ; 0               ; 0             ; 0               ; 0     ; 0              ; 0            ; 0                ; 0                 ;
; soc_system_inst|hps_0|hps_io                                                                                                                         ; 12    ; 0              ; 0            ; 0              ; 46     ; 0               ; 0             ; 0               ; 69    ; 0              ; 0            ; 0                ; 0                 ;
; soc_system_inst|hps_0|fpga_interfaces                                                                                                                ; 131   ; 0              ; 0            ; 0              ; 157    ; 0               ; 0             ; 0               ; 0     ; 0              ; 0            ; 0                ; 0                 ;
; soc_system_inst|hps_0                                                                                                                                ; 143   ; 0              ; 0            ; 0              ; 203    ; 0               ; 0             ; 0               ; 69    ; 0              ; 0            ; 0                ; 0                 ;
; soc_system_inst|adc_0|ADC_CTRL                                                                                                                       ; 4     ; 0              ; 0            ; 0              ; 100    ; 0               ; 0             ; 0               ; 0     ; 0              ; 0            ; 0                ; 0                 ;
; soc_system_inst|adc_0                                                                                                                                ; 40    ; 19             ; 31           ; 19             ; 36     ; 19              ; 19            ; 19              ; 0     ; 0              ; 0            ; 0                ; 0                 ;
; soc_system_inst                                                                                                                                      ; 15    ; 1              ; 0            ; 1              ; 59     ; 1               ; 1             ; 1               ; 69    ; 0              ; 0            ; 0                ; 0                 ;
+------------------------------------------------------------------------------------------------------------------------------------------------------+-------+----------------+--------------+----------------+--------+-----------------+---------------+-----------------+-------+----------------+--------------+------------------+-------------------+
